5. Importing External Datasets • SMARTTR
…
thresh <- 1
anesthesia$combined_normalized_counts$cfos <- anesthesia$combined_normalized_counts$cfos %>% dplyr::filter(counts >= thresh)

Please note that in this notebook, %>% is a pipe
operator, and allows for stringing together multiple functions. This
means the output of one function automatically is fed as a parameter
into the next function.

Remove outliers for each subgroup.

anesthesia <- find_outlier_counts(anesthesia, by = c("group"), n_sd = 2, remove = TRUE, log = TRUE)

## # A tibble: 98 x 9
## # Groups:   mouse_ID, group, sex, acronym [98]
##    mouse_ID group   sex   acronym name  counts volume.mm3 normalized.count.by.~1
##    <chr>    <chr>   <chr> <chr>   <chr>  <dbl>      <dbl>                  <dbl>
##  1 5        Control Fema~ 5Te     Moto~    152     0.104                   1462.
##  2 2        Control Fema~ A24 (C~ Cing~  20920     3.69                    5666.
##  3 2        Control Fema~ ATg     Ante~     49     0.0157                  3125 
##  4 2        Control Fema~ Acb     Accu~  14833     4.80                    3088.
##  5 2        Control Fema~ BLA     Baso~   1745     0.664                   2628.
##  6 2        Control Fema~ Ect     Ecto~  12268     3.11                    3945.
##  7 2        Control Fema~ IG      Indu~    110     0.0282                  3901.
##  8 5        Control Fema~ IMA     Intr~     89     0.0390                  2284.
##  9 2        Control Fema~ LM      Late~    194     0.0449                  4323.
## 10 2        Control Fema~ LPtA    Late~   1534     0.619                   2477.
## # i 88 more rows
## # i abbreviated name: 1: normalized.count.by.volume
## # i 1 more variable: outlier <lgl>
…
